<svg width="18" height="18" viewBox="0 0 18 18" fill="none" xmlns="http://www.w3.org/2000/svg">
<path fill-rule="evenodd" clip-rule="evenodd" d="M12.852 14.3742L14.25 6H3.75L5.14425 14.3734C5.20425 14.7347 5.517 15 5.88375 15H12.1125C12.4792 15 12.792 14.7354 12.852 14.3742ZM5.34337 7.35L6.39238 13.65H11.6042L12.6559 7.35H5.34337Z" fill="#767F8D"/>
<path fill-rule="evenodd" clip-rule="evenodd" d="M3.75 3.75C3.336 3.75 3 4.086 3 4.5V5.25H15V4.5C15 4.086 14.664 3.75 14.25 3.75H3.75Z" fill="#767F8D"/>
<path d="M6.75 3.75C6.75 3.33579 7.08579 3 7.5 3H10.5C10.9142 3 11.25 3.33579 11.25 3.75H6.75Z" fill="#767F8D"/>
<path d="M6.39238 13.65L5.34337 7.35H12.6559L11.6042 13.65H6.39238Z" fill="#767F8D"/>
</svg>
